Chapter 4 Group Comparison | Becoming Fluent in Data
…
Person 457 was not available in the year 2001 for some reason.

arrange() orders the rows of data by the values of selected columns (from low to high). We can combine arrange() with desc() to order observations from high to low.

soep_no_na %>%
  arrange(desc(no_kids))
#> # A tibble: 10,659 × 9
#>       id  year female     education no_kids health_org   satis…¹ healt…² satis…³
#>    <dbl> <dbl> <dbl+lbl>      <dbl>   <dbl> <dbl+lbl>    <dbl+l>   <dbl>   <dbl>
#>  1  2878  2000 1 [female]       7         3 4 [good]     7 [7 S…   0.567 -0.0909
#>  2  5728  2003 1 [female]      11.5       3 3 [satisfac… 8 [8 S…  -0.464  0.477 
#>  3  5728  2004 1 [female]      11.5       3 3 [satisfac… 5 [5 S…  -0.464 -1.23  
#>  4  8741  2000 1 [female]      11         3 4 [good]     5 [5 S…   0.567 -1.23  
#>  5  8741  2002 1 [female]      10.5       3 2 [poor]     6 [6 S…  -1.49  -0.659 
#>  6  8741  2003 1 [female]      10.5       3 4 [good]     4 [4 S…   0.567 -1.80  
#>  7  8741  2004 1 [female]      10.5       3 3 [satisfac… 8 [8 S…  -0.464  0.477 
#>  8 10566  2000 0 [male]        10.5       3 5 [very goo… 8 [8 S…   1.60   0.477 
#>  9 10566  2001 0 [male]        10.5       3 5 [very goo… 8 [8 S…   1.60   0.477 
#> 10 12599  2000 0 [male]         9         3 4 [good]     8 [8 S…   0.567  0.477 
#> # … with 10,649 more rows, and abbreviated variable names ¹​satisf_org,
#> #   ²​health_std, ³​satisf_std
…
