Intro to Tidyverse | Becoming Fluent in Data
…
Data with readr

The readr package reads data into what is called a tibble.

A tibble is similar to a dataframe. When you print a tibble, it only shows the first ten rows and all the columns that fit on one screen. It also prints an abbreviated description of the column type, and uses font styles and color for highlighting. So to say, the default behavior is excellent.

# load the entire tidyverse
library(tidyverse)

# read_csv is a tidyverse (readr) function
coursedata <- read_csv("https://raw.githubusercontent.com/MarcoKuehne/marcokuehne.github.io/main/data/Course/GF_2022_57.csv")

# print a tibble
coursedata
#> # A tibble: 57 × 8
#>    Academic.level Gender   Age Total.Semesters Background.in.Statistics
#>    <chr>          <chr>  <dbl>           <dbl>                    <dbl>
#>  1 Bachelor       Female    23               8                        2
#>  2 Bachelor       Female    22              10                        4
#>  3 Master         Male      23               9                        4
#>  4 Master         Male      24               2                        3
#>  5 Master         Male      27              10                        2
#>  6 Master         Male      23               7                        3
#>  7 Bachelor       Female    20               5                        2
#>  8 Bachelor       Female    22               8                        2
#>  9 Master         Male      27              13                        4
#> 10 Master         Female    22              10                        4
#> # ℹ 47 more rows
#> # ℹ 3 more variables: Background.in.R <dbl>,
#> #   Background.in.Academic.Writing <dbl>, Expectations <chr>
…
Select

Columns are selected by name or column index. Thus, the outcome of select(coursedata, Gender, Age) and select(coursedata, 2, 3) is identical.

select(coursedata, Gender, Age) 
#> # A tibble: 57 × 2
#>    Gender   Age
#>    <chr>  <dbl>
#>  1 Female    23
#>  2 Female    22
#>  3 Male      23
#>  4 Male      24
#>  5 Male      27
#>  6 Male      23
#>  7 Female    20
#>  8 Female    22
#>  9 Male      27
#> 10 Female    22
#> # ℹ 47 more rows

We can use a minus - to get rid of a column and leave the rest of the columns:

select(coursedata, -Total.Semesters, -Background.in.Statistics,
       -Background.in.R, -Background.in.Academic.Writing) 

Arrange

Often we are interested in the maximum or minimum age, thus arrange() a numerical value.

arrange(coursedata, Age) # from low to high Age
#> # A tibble: 57 × 8
#>    Academic.level Gender   Age Total.Semesters Background.in.Statistics
#>    <chr>          <chr>  <dbl>           <dbl>                    <dbl>
#>  1 Bachelor       Female    20               5                        2
#>  2 Master         Female    21               7                        2
#>  3 Bachelor       Male      21               2                        3
#>  4 Bachelor       Female    21               4                        2
#>  5 Bachelor       Female    21               3                        2
#>  6 Bachelor       Male      21               1                        2
#>  7 Bachelor       Female    21               1                        3
#>  8 Bachelor       Female    22              10                        4
#>  9 Bachelor       Female    22               8                        2
#> 10 Master         Female    22              10                        4
#> # ℹ 47 more rows
#> # ℹ 3 more variables: Background.in.R <dbl>,
#> #   Background.in.Academic.Writing <dbl>, Expectations <chr>

The default is from low to high values, the desc() options reverses the order.

arrange(coursedata, desc(Age)) # reverse 

Rename

Sometimes default variables names are too long or too complicated, thus we like to rename() them.

coursedata %>% 
  rename(Degree = Academic.level,
         Semesters = Total.Semesters)
#> # A tibble: 57 × 8
#>    Degree   Gender   Age Semesters Background.in.Statistics Background.in.R
#>    <chr>    <chr>  <dbl>     <dbl>                    <dbl>           <dbl>
#>  1 Bachelor Female    23         8                        2               2
#>  2 Bachelor Female    22        10                        4               3
#>  3 Master   Male      23         9                        4               2
#>  4 Master   Male      24         2                        3               1
#>  5 Master   Male      27        10                        2               1
#>  6 Master   Male      23         7                        3               1
#>  7 Bachelor Female    20         5                        2               3
#>  8 Bachelor Female    22         8                        2               1
#>  9 Master   Male      27        13                        4               4
#> 10 Master   Female    22        10                        4               4
#> # ℹ 47 more rows
#> # ℹ 2 more variables: Background.in.Academic.Writing <dbl>, Expectations <chr>
…
The pipe operator

As in base R, we often like to combine commands, e.g. select the Age variable and sort its values. dplyr verbs can be nested as in base R.

arrange(select(coursedata, Age), Age) 

But there is something else that is used in tidyverse logic, the so called pipe operator %>% (percentage sign, relation larger than, another percentage sign). You can read this as "then, please do the following".

coursedata %>%        # start with this data
  select(Age) %>%     # then select only the Age variable
  arrange(Age)        # then arrange the values
#> # A tibble: 57 × 1
#>      Age
#>    <dbl>
#>  1    20
#>  2    21
#>  3    21
#>  4    21
#>  5    21
#>  6    21
#>  7    21
#>  8    22
#>  9    22
#> 10    22
#> # ℹ 47 more rows
…
We are looking for females or anybody who reports more than 10 semesters.

coursedata %>%      
  filter(Gender == "Female" | Total.Semesters > 10) 
#> # A tibble: 33 × 8
#>    Academic.level Gender   Age Total.Semesters Background.in.Statistics
#>    <chr>          <chr>  <dbl>           <dbl>                    <dbl>
#>  1 Bachelor       Female    23               8                        2
#>  2 Bachelor       Female    22              10                        4
#>  3 Bachelor       Female    20               5                        2
#>  4 Bachelor       Female    22               8                        2
#>  5 Master         Male      27              13                        4
#>  6 Master         Female    22              10                        4
#>  7 Bachelor       Female    22               8                        2
#>  8 Master         Female    21               7                        2
#>  9 Master         Male      27              15                        3
#> 10 Master         Female    29               9                        3
#> # ℹ 23 more rows
#> # ℹ 3 more variables: Background.in.R <dbl>,
#> #   Background.in.Academic.Writing <dbl>, Expectations <chr>

Mutate

mutate() is the most frequent used command you will come across. It changes the data. We create a new variable Background_Knowledge by taking the average of the three background variables. All background variables have the same range from 1 to 5.

coursedata %>%      
  mutate(Background_Knowledge = (Background.in.Statistics +
                                 Background.in.R + 
                                 Background.in.Academic.Writing)/3) %>% 
  select(Academic.level, Gender, Age, Background_Knowledge)
#> # A tibble: 57 × 4
#>    Academic.level Gender   Age Background_Knowledge
#>    <chr>          <chr>  <dbl>                <dbl>
#>  1 Bachelor       Female    23                 2   
#>  2 Bachelor       Female    22                 3   
#>  3 Master         Male      23                 3.33
#>  4 Master         Male      24                 2.33
#>  5 Master         Male      27                 2.33
#>  6 Master         Male      23                 2   
#>  7 Bachelor       Female    20                 2.67
#>  8 Bachelor       Female    22                 1.67
#>  9 Master         Male      27                 4   
#> 10 Master         Female    22                 3.67
#> # ℹ 47 more rows
…
