Chapter 4 Panel Data | Becoming Fluent in Data
…
The documentation (click the DOI https://doi.org/10.5684/soep.practice.v36) tells that there are 6.355 people in the data. Every individual is likely observed multiple times (i.e. panel data). Pipe soep into count() of personal id. The tibble output already contains the number of rows. To literally access the value, ask nrow().

# soep %>% count(id) # try this as well
soep %>% count(id) %>% nrow()
#> [1] 6355

Adding arrange() means sorting the data by a variable (i.e. the temporarily created variable n) either ascending or descending (from high to low). Ascending is the default. For descending order apply the desc() command. group_by() is a powerful command, especially when working with panel data. It can do any form of data manipulation or analysis with respect to the chosen variable. At this stage it's a mere alternative count().

# soep %>% group_by(id) %>% count() %>% arrange(n) # try this alternative 
soep %>% count(id) %>% arrange(n) 
soep %>% count(id) %>% arrange(desc(n)) 

See result.

#> # A tibble: 6,355 × 2
#>       id     n
#>    <dbl> <int>
#>  1    96     1
#>  2   137     1
#>  3   147     1
#>  4   183     1
#>  5   189     1
#>  6   229     1
#>  7   368     1
#>  8   371     1
#>  9   384     1
#> 10   443     1
#> # ℹ 6,345 more rows
…
