Chapter 5 Panel Data | Becoming Fluent in Data
…
Adding arrange() means sorting the data by a variable (i.e. the temporarily created variable n) either ascending or descending (from high to low). Ascending is the default. For descending order apply the desc() command.

soep %>% group_by(id) %>% count() %>% arrange(desc(n)) 

See result.

## # A tibble: 6,355 × 2
## # Groups:   id [6,355]
##       id     n
##    <dbl> <int>
##  1     4     5
##  2     8     5
##  3    15     5
##  4    17     5
##  5    28     5
##  6    29     5
##  7    53     5
##  8    56     5
##  9    71     5
## 10    85     5
## # … with 6,345 more rows
…
